Problem set 4
…
    values_to = "population"
  ) |>
  mutate(
    year = as.integer(str_remove(year, "^POP_")),     # 5) remove "POP_" and parse year
    population = as.numeric(population),              # 6) numeric population
    state = recode(state_name, !!!state_map),         # 7) add 50-state abbreviations
    state = case_when(                                # 8) add DC & PR
      state_name == "District of Columbia" ~ "DC",
      state_name == "Puerto Rico" ~ "PR",
      TRUE ~ state
    )
  )
population

# A tibble: 104 × 4
   state_name    year population state
   <chr>        <int>      <dbl> <chr>
 1 Oklahoma      2020    3962031 OK   
 2 Oklahoma      2021    3986639 OK   
 3 Nebraska      2020    1961455 NE   
 4 Nebraska      2021    1963692 NE   
 5 Hawaii        2020    1451911 HI   
 6 Hawaii        2021    1441553 HI   
 7 South Dakota  2020     887099 SD   
 8 South Dakota  2021     895376 SD   
 9 Tennessee     2020    6920119 TN   
10 Tennessee     2021    6975218 TN   
# ℹ 94 more rows
…
cases 

# A tibble: 10,380 × 3
   state date       cases
   <chr> <date>     <dbl>
 1 AZ    2023-02-22  3716
 2 LA    2022-12-21  4041
 3 GA    2023-02-22  5298
 4 LA    2023-03-29  2203
 5 LA    2023-02-01  5725
 6 LA    2023-03-22  1961
 7 LA    2023-04-26  1884
 8 NV    2023-03-15  1233
 9 FL    2023-05-10  6937
10 NYC   2022-10-26 14590
# ℹ 10,370 more rows
…
